{
  "project_info": {
    "project_number": "236105737063",
    "firebase_url": "https://flutter-exchanger.firebaseio.com",
    "project_id": "flutter-exchanger",
    "storage_bucket": "flutter-exchanger.appspot.com"
  },
  "client": [
    {
      "client_info": {
        "mobilesdk_app_id": "1:236105737063:android:989acfc06893fb8cb5c5c2",
        "android_client_info": {
          "package_name": "com.flutterexchanger"
        }
      },
      "oauth_client": [
        {
          "client_id": "236105737063-qb2t48vagde7j0opt7vdcjd2a620850e.apps.googleusercontent.com",
          "client_type": 3
        }
      ],
      "api_key": [
        {
          "current_key": "AIzaSyDMR1P5xrABGYP95CskOEtvf1_5JSxbj_E"
        }
      ],
      "services": {
        "appinvite_service": {
          "other_platform_oauth_client": [
            {
              "client_id": "236105737063-qb2t48vagde7j0opt7vdcjd2a620850e.apps.googleusercontent.com",
              "client_type": 3
            },
            {
              "client_id": "236105737063-u0d1o2556kv46a3aecd6rnipvmmtemk3.apps.googleusercontent.com",
              "client_type": 2,
              "ios_info": {
                "bundle_id": "com.dryl"
              }
            }
          ]
        }
      }
    }
  ],
  "configuration_version": "1"
}